hw5
…
### For part two, since there are too many categories to visualize, I select the top 20 categories based on highest total volumes sold and make a visualization with just these 20.

rankedCategories <- cleanData3 %>% 
  group_by(`Category Name`) %>%
  summarize(sum = sum(`Volume Sold (Gallons)`))
arrange(rankedCategories, desc(sum))

## # A tibble: 124 x 2
##    `Category Name`                      sum
##    <chr>                              <dbl>
##  1 VODKA 80 PROOF                   108334.
##  2 American Vodkas                   82790.
##  3 CANADIAN WHISKIES                 62515.
##  4 SPICED RUM                        44696.
##  5 Canadian Whiskies                 37165.
##  6 PUERTO RICO & VIRGIN ISLANDS RUM  31348.
##  7 STRAIGHT BOURBON WHISKIES         28319.
##  8 Spiced Rum                        24930.
##  9 VODKA FLAVORED                    23335.
## 10 AMERICAN COCKTAILS                20467.
## # ... with 114 more rows
…
